<?xml version="1.0" encoding="utf-8"?>
<!-- Generator: Adobe Illustrator 20.1.0, SVG Export Plug-In . SVG Version: 6.00 Build 0)  -->
<!DOCTYPE svg PUBLIC "-//W3C//DTD SVG 1.1//EN" "http://www.w3.org/Graphics/SVG/1.1/DTD/svg11.dtd">
<svg version="1.1" id="Layer_1" xmlns="http://www.w3.org/2000/svg" xmlns:xlink="http://www.w3.org/1999/xlink" x="0px" y="0px"
	 viewBox="0 0 1024 1024" style="enable-background:new 0 0 1024 1024;" xml:space="preserve">
<g>
	<path d="M554.7,533.3H341.3V448c0-41.2-24.4-56.2-34.9-60.7c-10.5-4.6-38.1-12.1-68.1,16.1L27.5,601
		c-16.8,15.7-26.3,37.7-26.3,60.3s9.6,44.6,26.3,60.3l210.8,197.7c17.2,16.1,33.5,20.5,46.4,20.5c9.6,0,17.3-2.5,21.8-4.5
		c10.5-4.5,34.8-19.5,34.8-60.7l0-85.3h213.3c47,0,85.3-38.3,85.3-85.3v-85.3C640,571.6,601.7,533.3,554.7,533.3z M554.7,704H341.3
		c-47,0-85.3,38.3-85.4,85.3l0,30.3L85.9,663.3L256,503.9v29.5c0,47,38.3,85.3,85.3,85.3h213.3V704z"/>
	<path d="M996.5,302.4L785.7,104.7c-30.2-28.2-57.7-20.7-68.1-16.1c-10.5,4.5-34.9,19.5-34.9,60.7v85.3H469.3
		c-47.1,0-85.3,38.3-85.3,85.3v85.3c0,47.1,38.3,85.3,85.3,85.3h213.3V576c0,41.2,24.4,56.2,34.8,60.7c4.5,2,12.1,4.5,21.8,4.5
		c12.8,0,29.2-4.5,46.4-20.5l210.9-197.7c16.7-15.7,26.3-37.6,26.3-60.3S1013.2,318.1,996.5,302.4z M768,520.2v-29.5
		c0-47.1-38.3-85.3-85.3-85.3H469.3V320h213.3c47,0,85.3-38.3,85.3-85.3v-30.3l170.1,156.3L768,520.2z"/>
</g>
</svg>
