<?xml version="1.0" encoding="utf-8"?>
<!-- Generator: Adobe Illustrator 20.1.0, SVG Export Plug-In . SVG Version: 6.00 Build 0)  -->
<!DOCTYPE svg PUBLIC "-//W3C//DTD SVG 1.1//EN" "http://www.w3.org/Graphics/SVG/1.1/DTD/svg11.dtd">
<svg version="1.1" id="Layer_1" xmlns="http://www.w3.org/2000/svg" xmlns:xlink="http://www.w3.org/1999/xlink" x="0px" y="0px"
	 viewBox="0 0 4205.4 1024" style="enable-background:new 0 0 4205.4 1024;" xml:space="preserve">
<path d="M0,466.9c1.7-35.3,2.4-70.6,5.2-105.8c5.1-63.4,9.4-127,17.9-189.9C33.9,91,102.2,30.5,186.5,19.9
	C313.4,4,440.9-2.1,568.7,0.6c94,2,187.8,7.3,280.9,21.4C932,34.4,994.4,101.1,1004,183.8c15.3,131.2,22.7,262.7,19.1,394.7
	c-2.5,91.9-7.2,183.7-21.7,274.6c-13.1,81.7-78.2,140.2-160.9,150.9c-134.4,17.3-269.3,22.5-404.6,19.1
	c-87.7-2.2-175.4-7-262.1-21.2c-84.9-14-145.9-79.6-153.3-165.4C12.8,747,7.6,657.4,1.3,567.8c-0.3-3.7-0.9-7.4-1.3-11.1
	C0,526.8,0,496.9,0,466.9z M142.2,461c-0.1,122.1,4.8,206.7,15.1,291c7.2,58.8,54.3,106.8,113.4,114.5c23.1,3,46.2,5.7,69.4,7.8
	c138.8,12.2,277.4,10.6,415.6-7.9c55.7-7.5,104.3-54.1,110.5-109.9c6.6-59,11.9-118.3,14.6-177.6c4.5-98.6-0.9-197-11.8-295.1
	c-6.5-58-34.3-100.3-90.3-120.1c-18.9-6.7-39.7-8.7-59.9-10.8c-149-15.4-298-15.1-446.7,4.3c-59.7,7.8-108.4,55-114.4,114.8
	C150.3,347.2,145.3,422.7,142.2,461z"/>
<path d="M4206.1,511.4c0,104.4-6.3,208.5-18.7,312.2C4177.3,907.9,4119.2,971,4036,985c-31.8,5.4-64.5,6.4-96.8,8.1
	c-86.7,4.7-173.5,9.4-260.3,12.7c-93.5,3.5-187,5.8-280.5,7.9c-94.4,2.1-188.7,4.4-283.1,4.9c-259.2,1.3-518.4,1.9-777.6,2.1
	c-74,0.1-148-2.1-222-3.4c-65.3-1.2-130.5-2.1-195.8-4c-87.2-2.7-174.4-6.2-261.5-9.5c-61-2.4-122.1-4.3-183-7.9
	c-52.6-3.1-105.5-5.1-157.5-12.9c-69.7-10.5-129.8-74.8-138.9-145c-6.6-50.9-11.9-102.2-14.9-153.4c-3.8-65.9-7-132-6.2-198
	c0.9-70.5,6.2-141,11-211.4c2.4-34.7,5.7-69.6,12.8-103.5c14.4-69,75.8-124.9,145.9-133.9c39.5-5.1,79.4-7.4,119.2-9.6
	c70.9-4,141.9-7.5,212.9-10.1c89.7-3.3,179.5-5.7,269.2-8c81.5-2.1,162.9-3.7,244.4-5c98.6-1.5,197.1-2.8,295.7-3.4
	c144.4-0.8,288.8-1.2,433.1-1c88.6,0.1,177.2,1.2,265.8,2.5c89.8,1.3,179.6,2.7,269.4,5.1c100.6,2.7,201.1,5.5,301.6,10.1
	c94.2,4.3,188.4,10.2,282.5,17c87.5,6.3,155.6,74.6,166.1,163.8C4199.8,302.8,4206.1,406.9,4206.1,511.4z M2798,337.3
	c0,154.3,0,307.1,0,460.3c20.8,0,40.9,0,62.3,0c0-45.6,0-90.2,0-133.9c15.8,7.5,30.1,16.7,45.7,21.2c42.7,12.3,92.5,2,109.4-52
	c4.1-13,8-26.5,8.4-40c1.7-49,3.6-98.1,1.9-147.1c-0.8-23.5-7.8-47.3-15.1-70c-6.5-20.2-21.9-34.3-42.7-40.6
	c-22.7-6.9-46.1-8.7-68.2,1.4c-16.4,7.4-31.7,17.3-47.7,26.2c-1.9-5.3-3.8-12.1-6.7-18.4c-1.3-2.8-4.5-6.7-7-6.8
	C2825.1,337,2811.9,337.3,2798,337.3z M2565.2,556c-3.1-0.2-7.2-0.5-11.3-0.5c-17-0.1-33.9,0-52.9,0c1.3,15.5,1.9,29.6,3.7,43.4
	c6.2,49.1,35.5,81.7,81.6,87.1c23.7,2.8,48.2,2.8,71.9,0.2c42.4-4.7,70.6-28.7,82.5-70.3c8.7-30.4,9.2-61.6,5.4-92.6
	c-5.2-42.4-29-70.6-69.3-84.2c-17.2-5.8-35-9.9-52.5-14.7c-26.1-7.2-47-20.6-51.2-49.4c-2.2-15-2.2-30.8-0.2-45.9
	c4-29.3,21.8-43.3,51.4-43.3c30,0,44.8,12.3,50.5,42.3c1.2,6.5,0.9,13.3,2.3,19.7c0.6,2.9,3.7,7.4,5.7,7.4
	c19.3,0.6,38.7,0.3,59.7,0.3c-1.2-14.6-1.6-27.4-3.5-40c-5.4-37.2-20.9-67.8-59.2-80.3c-30.1-9.9-61.1-11-92.2-4
	c-38.3,8.6-63,32-73.8,69.6c-9.9,34.3-9.8,68.9-0.1,103.2c12.2,43.2,45.4,62,85.5,72.9c16.7,4.5,33.7,8.9,49.7,15.5
	c19.3,8,32.3,23.2,33.1,44.5c0.8,20.1-0.3,40.5-3.7,60.3c-2.9,17.3-15.9,28.3-33.3,31.4c-11.2,2-23.1,1.8-34.5,0.9
	c-21.1-1.8-34.1-14.3-38.9-34.5C2568.9,582.6,2567.5,569.8,2565.2,556z M1507.9,520.6c29.3-1.3,56.9-1,84-4.1
	c38.4-4.4,65.1-25,76.5-63.2c9.2-30.7,10.7-62.1,8.8-93.7c-0.8-14.1-2.1-28.3-5-42c-11-51.7-41.2-76.7-94.4-77.8
	c-41.2-0.8-82.4-0.4-123.6-0.4c-2.8,0-5.6,0.5-8.8,0.9c0,147.2,0,293.8,0,440.7c21.1,0,41.2,0,62.4,0
	C1507.9,627.2,1507.9,574.1,1507.9,520.6z M2072.4,681.7c0-6.1,0-10.5,0-15c0-49.5,0.3-99.1-0.1-148.6c-0.3-34.1-0.3-68.2-2.4-102.2
	c-2.8-44.4-27.6-71.8-71-78.8c-18.7-3-38.2-3.7-57-2.1c-59.4,5-88.1,45.5-83.7,108.9c19.7,0,39.5,0,59.4,0c0.4-3.5,0.8-6.4,1-9.3
	c2.5-34.3,17.2-50.2,62.2-42.8c13.2,2.2,23.3,9.8,25.1,22.7c3.3,23.5,4.1,47.4,6,71c-31.1,3.2-58.8,5.9-86.4,8.8
	c-39.3,4.1-66.6,26.5-73.9,63c-3.2,16.1-4.2,33.2-2.8,49.5c3.4,43.2,25.4,71.3,60.2,79.3c32.9,7.6,63.5,1.9,91.1-18.1
	c5.5-4,10.9-8.2,16.9-12.7c2.8,7.4,4.6,13.9,7.7,19.7c1.6,2.9,5.5,6.1,8.5,6.3C2045.5,682.1,2058,681.7,2072.4,681.7z M3073.8,514.9
	c3,28.9,4.6,63.4,10.7,97.1c6.9,38.5,29.2,66,69.7,73.6c15.8,3,32.2,3.3,48.3,3.3c54.5,0,88-26,98.6-79.5
	c12.7-63.7,11.4-128.2,1.6-192.1c-6.7-43.3-28.5-76-75.7-84.3c-9.4-1.6-19-3.1-28.4-3.1c-60.4,0-104.7,13.2-117.1,92.5
	C3077,451,3076.6,480.3,3073.8,514.9z M2118,742c0,16.9-0.6,32.7,0.4,48.4c0.2,3.8,5.5,10,8.9,10.3c17.7,1.6,35.7,3.5,53.2,1.7
	c28.4-3,47.4-20.3,58.4-46.4c3.4-8,6.5-16.2,8.7-24.6c29.3-111.3,58.4-222.6,87.5-334c4.8-18.5,9.6-37.1,14.7-56.8
	c-21.1,0-40.2,0.3-59.3-0.2c-7.5-0.2-9,3.9-10.2,9.6c-11.8,57.3-23.6,114.5-35.4,171.8c-4.4,21-8.9,42.1-13.4,63.1
	c-0.9-0.1-1.8-0.1-2.7-0.2c-18.2-81-36.3-162.1-54.5-243c-22.6,0-44.3,0-66.7,0c28.7,106.4,56.2,211.8,85.9,316.7
	c7.5,26.6,0.4,48.8-9.3,71.6c-6.2,14.6-19.1,20.6-34.6,18.7C2139.5,747.6,2129.6,744.6,2118,742z M3706.1,582
	c0.8,11,1.4,20.5,2.3,30c3.7,38.8,25,63.4,62.7,72.5c29.6,7.1,59.5,6.8,89.1,1.2c31.9-6,57.3-21.6,63.8-56
	c3.4-18.2,3.8-37.1,3.9-55.7c0.2-41.3-18.5-67.2-58.3-79.6c-18.5-5.8-37.9-8.8-57-12.5c-23-4.4-36-14.5-38.8-32.9
	c-1.4-9.8-1.5-20.1-0.1-29.8c3.2-21.7,18-32.7,42.7-33.3c24.5-0.6,39.4,9.7,44.2,31.3c1.6,7.2,2.3,14.5,3.5,21.8c19.7,0,39,0,60.7,0
	c-2.3-17.1-3.5-33.2-6.9-48.8c-6.4-29-24.8-47.4-53.5-54.6c-25.7-6.4-51.9-7.5-77.9-2.7c-34.4,6.4-59.7,24.4-69.8,59.4
	c-2.7,9.5-4.6,19.5-5.1,29.4c-3.1,60.9,14.6,95.9,76.7,108.5c15.8,3.2,32.1,5.2,47.5,9.7c23.1,6.8,33.5,24,31.7,48.7
	c-2,28.3-12.4,41.3-39.1,44.6c-31.5,3.9-59.6-4.2-61-43.4c-0.1-2.4-1.1-4.8-1.7-7.7C3746.2,582,3726.8,582,3706.1,582z
	 M3673.4,626.7c-7,1.7-12.8,3.5-18.8,4.6c-29,5.4-39.2-3-39.8-32.6c0-0.8,0-1.7,0-2.5c0-63.2,0-126.4,0-189.6c0-4,0.3-8.1,0.6-13.6
	c18.8,0,36.4,0,54.4,0c0-19.3,0-36.9,0-55.9c-18.5,0-36.2,0-55.3,0c0-31.5,0-61.6,0-92.8c-18.9,4.5-36,9.1-53.4,12.4
	c-7.8,1.5-9.1,5.3-9,11.9c0.3,15,0.1,29.9,0.1,44.9c0,24.2,0,24-23.3,31c-3.7,1.1-9.4,4.4-9.6,7c-1,13.5-0.4,27.1-0.4,42.1
	c12,0,22.2,0,33.3,0c0,6.9,0,12.3,0,17.6c0.4,71.1,0.1,142.2,1.4,213.2c0.6,32.9,17.7,55.7,42.8,61.8c23.6,5.7,47,3.6,70.1-3.2
	c2.8-0.8,6.4-5.3,6.5-8.2C3673.8,659.2,3673.4,643.4,3673.4,626.7z M1792.6,240.5c-21.1,0-41.1,0-60.7,0c0,147.6,0,294.1,0,440.4
	c20.8,0,40.6,0,60.7,0C1792.6,533.8,1792.6,387.6,1792.6,240.5z M3426.2,681.2c0-5.9,0-10.5,0-15c0-76.6,0.1-153.1-0.2-229.7
	c0-8.8,2.8-14.7,9-20.4c16.5-15,36.5-20.3,57.9-21.9c0-21.8,0-42.8,0-63.9c-29.7,0.6-53.1,13.3-74,33.9c-2.7-7.7-4.5-14-7.3-19.9
	c-1.3-2.8-4.5-6.5-7-6.6c-13.2-0.7-26.4-0.3-40.2-0.3c0,115.4,0,229.5,0,343.9C3385.1,681.2,3404.9,681.2,3426.2,681.2z"/>
<path d="M734.9,580.9c9.4,30.5,3.9,47.4-19.9,63.9c-57.6,40.1-120.1,67.5-191.3,70.7c-51.4,2.3-100-9.9-145.5-32.6
	c-26.3-13.1-50.9-29.6-75.7-45.4c-11.7-7.5-19.1-40.9-12.1-52.1c1.2-1.9,8.7-1.5,12.2,0.1c28,12.5,54.8,28.1,83.7,38
	c116.7,39.8,228.2,24.6,334.5-36C725.3,585,730.1,583.2,734.9,580.9z"/>
<path d="M301.8,390.4c-0.2-34.7,11.2-53.3,33.7-64.5c30.6-15.2,61.7-15.2,92.3-0.1c24,11.9,35,32.1,34.1,58.7
	c-0.9,25.8-13.6,44.1-36.7,54.7c-27.8,12.8-56.2,13.2-84.5,1.1C314.2,429,301.7,409.7,301.8,390.4z"/>
<path d="M561.2,416.2c0-20.2-0.3-40.4,0.4-60.5c0.1-2.5,5.4-6.1,8.8-6.9c48-10.8,95.8-8.4,143.1,4.3c3.5,0.9,7.5,7.5,7.8,11.7
	c1,14.1-0.2,28.3,0.5,42.4c0.6,11.3-4.1,13-14.2,11.9c-27.7-2.9-55.4-5.7-83.2-6.5C604.2,412.1,583.9,414.8,561.2,416.2z"/>
<path d="M2859.6,509.6c0-26.2-0.5-52.4,0.4-78.5c0.2-6.2,3.4-13.7,7.8-18c15.1-14.6,31.9-26.8,54.5-26.3
	c20.6,0.5,32.3,8.5,36.8,28.4c3.3,14.8,5,30.3,5.3,45.5c0.6,36.5,0.4,73.1-0.3,109.7c-0.2,11.5-2,23.2-5,34.4
	c-5.8,22-24.6,33.1-46.8,28.5c-19.9-4.1-35.3-16-49-30.2c-2.7-2.8-3.4-8.3-3.4-12.6C2859.5,563.6,2859.6,536.6,2859.6,509.6z"/>
<path d="M1508.8,297.2c20.3,0,39.5-0.8,58.5,0.2c26.3,1.3,41.3,16.6,44.7,50.7c2.4,23.7,1.2,48.2-1.8,71.9
	c-3.3,26.4-15.5,37.8-41.3,40.5c-19.6,2-39.6,0.4-60.2,0.4C1508.8,406.4,1508.8,352.5,1508.8,297.2z"/>
<path d="M2010.2,526.6c0,24.3,0,47-0.1,69.8c0,1.9-0.6,4.3-1.9,5.6c-17.9,17.5-37.7,31.4-64.2,30.4c-19.2-0.8-31-12.9-33.3-33.6
	c-1-9-1-18.3,0-27.3c2.5-20.8,14.5-33.1,34.8-36.3c10.6-1.7,21.4-2.4,32.1-3.8C1987.9,530,1998.1,528.4,2010.2,526.6z"/>
<path d="M3137.2,503c1.9-21.8,2.1-50.7,7.3-78.6c6.7-35.8,45.3-50.7,76.9-31.9c15.2,9,20,24.7,21.5,40.3c5.2,53.4,7.5,107-1.5,160.2
	c-6.2,36.4-40.9,52.4-74.2,35.9c-18.7-9.3-23.6-27.3-25.4-45.7C3139.4,558.9,3138.9,534.3,3137.2,503z"/>
</svg>
