<?xml version="1.0" encoding="utf-8"?>
<!-- Generator: Adobe Illustrator 19.2.1, SVG Export Plug-In . SVG Version: 6.00 Build 0)  -->
<!DOCTYPE svg PUBLIC "-//W3C//DTD SVG 1.1//EN" "http://www.w3.org/Graphics/SVG/1.1/DTD/svg11.dtd">
<svg version="1.1" id="Layer_1" xmlns="http://www.w3.org/2000/svg" xmlns:xlink="http://www.w3.org/1999/xlink" x="0px" y="0px"
	 viewBox="0 0 1024 1024" style="enable-background:new 0 0 1024 1024;" xml:space="preserve">
<g>
	<path d="M354.2,334.2L512,196.3l157.8,137.8c11.6,11.6,30.5,11.6,42.2,0c11.6-11.6,11.6-30.5,0-42.2L512,112L312,292
		c-11.6,11.6-11.6,30.5,0,42.2C323.6,345.8,342.5,345.8,354.2,334.2z"/>
	<path d="M669.8,689.8L512,827.7L354.2,689.8c-11.6-11.6-30.5-11.6-42.2,0c-11.6,11.6-11.6,30.5,0,42.2l200,180l200-180
		c11.6-11.6,11.6-30.5,0-42.2C700.4,678.2,681.5,678.2,669.8,689.8z"/>
</g>
</svg>
