<?xml version="1.0" encoding="utf-8"?>
<!-- Generator: Adobe Illustrator 21.0.0, SVG Export Plug-In . SVG Version: 6.00 Build 0)  -->
<svg version="1.1" id="Layer_1" xmlns="http://www.w3.org/2000/svg" xmlns:xlink="http://www.w3.org/1999/xlink" x="0px" y="0px"
	 width="1024px" height="1024px" viewBox="0 0 1024 1024" style="enable-background:new 0 0 1024 1024;" xml:space="preserve">
<path d="M1006.6,677.7h-69.4V158.8c0-6.8-5.5-12.4-12.4-12.4H98.1c-6.8,0-12.4,5.5-12.4,12.4v518.9H16.4c-6.8,0-12.4,5.5-12.4,12.4
	s5.5,12.4,12.4,12.4h308.5c6.4,97.5,87.5,174.9,186.6,174.9c99.1,0,180.2-77.4,186.6-174.9h308.6c6.8,0,12.4-5.5,12.4-12.4
	S1013.5,677.7,1006.6,677.7z M267,677.7h-95.2V550.6l95.2,31.7V677.7z M267,556.2l-95.2-31.7V399.9l95.2,63.5V556.2z M267,433.6
	l-95.2-63.5V250l95.2,95.2V433.6z M189.3,232.4h138.5l47.6,95.2h-90.9L189.3,232.4z M383.1,444.3h-91.3v-91.9h91.3V444.3z
	 M383.1,469.1v85.2c-2.3,2.2-4.6,4.4-6.8,6.8h-84.5v-91.9C291.8,469.1,383.1,469.1,383.1,469.1z M425,552.9l-0.3,2.6l-47.7,47.8
	l-2.7,0.3C387.2,583.1,404.5,565.8,425,552.9z M438.8,576.3l42.7,21.3l-7.5,55.1l-55.1,7.5l-21.3-42.7L438.8,576.3z M449.8,554.1
	l1.9-14.9c18.5-7.4,38.7-11.6,59.8-11.6c19.8,0,38.6,3.7,56.2,10.2l-0.1,17.9c-16.5,1.4-46.7,5.9-73,20.6L449.8,554.1z M506.5,598.1
	c25.4-14.2,56.6-17.3,68.5-18l46.6,46.6c-0.6,11.9-3.7,42.9-18,68.4l-61.2,8.3l-44.2-44.2L506.5,598.1z M592.3,562.4l0.1-13
	c24.9,14.3,45.5,35,59.9,59.9l-13.1,0.1L592.3,562.4z M615.2,352.4v91.9h-91.3v-91.9H615.2z M523.9,327.7v-95.2h143.6l-47.6,95.2
	H523.9z M615.2,469.1v65.3c-26.5-17.7-57.7-28.6-91.3-30.8v-34.4C523.9,469.1,615.2,469.1,615.2,469.1z M407.8,534.4v-65.3h91.3
	v34.4C465.5,505.7,434.3,516.7,407.8,534.4z M407.8,444.3v-91.9h91.3v91.9H407.8z M499.1,327.7h-96l-47.6-95.2h143.6V327.7z
	 M291.8,585.8h64.4c-17.9,26.6-29,58.1-31.2,91.9h-33.1V585.8z M349,690.1c0-21.1,4.2-41.3,11.6-59.8l14.9-1.9l22.3,44.8
	c-14.7,26.4-19.2,56.5-20.6,73l-18,0.1C352.8,728.7,349,709.9,349,690.1z M430.6,830.8c-24.8-14.3-45.5-35-59.8-59.9l13-0.1
	l46.9,46.9L430.6,830.8z M401.5,753.6c0.6-11.8,3.7-42.9,18-68.5l61.2-8.3l44.2,44.2l-8.3,61.1c-25.4,14.2-56.5,17.3-68.4,18
	L401.5,753.6z M571.3,841c-18.6,7.4-38.7,11.6-59.9,11.6c-19.8,0-38.6-3.7-56.1-10.2l0.1-17.9c16.5-1.4,46.7-5.9,73-20.6l44.7,22.3
	L571.3,841z M541.4,782.6l7.5-55.1l55.1-7.5l21.3,42.7l-41.2,41.1L541.4,782.6z M598,827.4l0.3-2.7l47.8-47.7l2.6-0.3
	C635.8,797.1,618.5,814.4,598,827.4z M662.4,749.9l-14.9,1.9l-22.3-44.7c14.7-26.4,19.2-56.5,20.6-73l17.9-0.1
	c6.5,17.5,10.2,36.4,10.2,56.1C673.9,711.2,669.8,731.4,662.4,749.9z M731.2,677.7h-33.1c-2.2-33.8-13.3-65.3-31.2-91.9h64.4V677.7z
	 M731.2,561h-84.5c-2.2-2.3-4.5-4.5-6.8-6.7v-85.2h91.3V561z M731.2,444.3h-91.3v-91.9h91.3V444.3z M647.6,327.7l47.6-95.2h138.5
	l-95.2,95.2H647.6z M851.2,677.7H756v-95.4l95.2-31.7V677.7z M851.2,524.5L756,556.2v-92.9l95.2-63.5V524.5z M851.2,370.1L756,433.6
	v-88.4l95.2-95.3V370.1z M912.5,677.7H876V220.1c0-6.8-5.5-12.4-12.4-12.4H159.4c-6.8,0-12.4,5.5-12.4,12.4v457.6h-36.5V171.2h802
	L912.5,677.7L912.5,677.7z"/>
</svg>
